{
	"info": {
		"_postman_id": "097a3581-5657-4c61-850b-52286703f07c",
		"name": "Customers API",
		"schema": "https://schema.getpostman.com/json/collection/v2.1.0/collection.json"
	},
	"item": [
		{
			"name": "CPF incorreto",
			"event": [
				{
					"listen": "test",
					"script": {
						"exec": [
							"pm.test(\"Status code is 400\", function () {\r",
							"    pm.response.to.have.status(400);\r",
							"});\r",
							"pm.test(\"Codigo 2932\", function () {\r",
							"    var jsonData = pm.response.json();\r",
							"    pm.expect(jsonData.codigo).to.eql(2932);\r",
							"});\r",
							"\r",
							"pm.test(\"CPF incorreto\", function () {\r",
							"    var jsonData = pm.response.json();\r",
							"    pm.expect(jsonData.mensagem).to.eql('CPF (20562077026) incorreto');\r",
							"});"
						],
						"type": "text/javascript"
					}
				}
			],
			"request": {
				"method": "GET",
				"header": [],
				"url": {
					"raw": "{{HOST}}/customers/:cpf/orders",
					"host": [
						"{{HOST}}"
					],
					"path": [
						"customers",
						":cpf",
						"orders"
					],
					"variable": [
						{
							"key": "cpf",
							"value": "20562077026"
						}
					]
				}
			},
			"response": []
		},
		{
			"name": "Cliente não encontrado",
			"event": [
				{
					"listen": "test",
					"script": {
						"exec": [
							"pm.test(\"Status code is 404\", function () {\r",
							"    pm.response.to.have.status(404);\r",
							"});\r",
							"pm.test(\"Codigo 4384\", function () {\r",
							"    var jsonData = pm.response.json();\r",
							"    pm.expect(jsonData.codigo).to.eql(4384);\r",
							"});\r",
							"\r",
							"pm.test(\"Cliente não encontrado\", function () {\r",
							"    var jsonData = pm.response.json();\r",
							"    pm.expect(jsonData.mensagem).to.eql('cliente (80772705062) não foi encontrado');\r",
							"});"
						],
						"type": "text/javascript"
					}
				}
			],
			"request": {
				"method": "GET",
				"header": [],
				"url": {
					"raw": "{{HOST}}/customers/:cpf/orders",
					"host": [
						"{{HOST}}"
					],
					"path": [
						"customers",
						":cpf",
						"orders"
					],
					"variable": [
						{
							"key": "cpf",
							"value": "80772705062"
						}
					]
				}
			},
			"response": []
		},
		{
			"name": "Ordens Em Atraso",
			"event": [
				{
					"listen": "test",
					"script": {
						"exec": [
							"pm.test(\"Status code is 200\", function () {\r",
							"    pm.response.to.have.status(200);\r",
							"});\r",
							"\r",
							"pm.test(\"Informações\", function () {\r",
							"    var jsonData = pm.response.json();\r",
							"    pm.expect(Object.keys(jsonData).length).to.eql(2);\r",
							"});"
						],
						"type": "text/javascript"
					}
				}
			],
			"request": {
				"method": "GET",
				"header": [],
				"url": {
					"raw": "{{HOST}}/customers/:cpf/orders",
					"host": [
						"{{HOST}}"
					],
					"path": [
						"customers",
						":cpf",
						"orders"
					],
					"variable": [
						{
							"key": "cpf",
							"value": "10165182008"
						}
					]
				}
			},
			"response": []
		}
	],
	"event": [
		{
			"listen": "prerequest",
			"script": {
				"type": "text/javascript",
				"exec": [
					""
				]
			}
		},
		{
			"listen": "test",
			"script": {
				"type": "text/javascript",
				"exec": [
					""
				]
			}
		}
	],
	"variable": [
		{
			"key": "HOST-LOCAL",
			"value": "localhost:8080"
		},
		{
			"key": "HOST-CONTAINER",
			"value": "customers"
		}
	]
}